cpf,matricula,sobrenome,nome,email,data de ingresso
086.065.408-00, 200982515, Young, Mark, mark.young@incolume.com.br, Wed Jun 10 17:55:19 2009
139.061.065-27, 201587785, Vidal, Virginia, virginia.vidal@incolume.com.br, Mon Aug 31 18:11:50 2015
919.082.301-72, 200803460, Reyes, Stephen, stephen.reyes@incolume.com.br, Sat Jul  5 20:29:57 2008
014.794.462-29, 201718260, Rising, Douglas, douglas.rising@incolume.com.br, Tue May  9 20:54:13 2017
331.653.728-14, 201446337, Hanneman, Christi, christi.hanneman@incolume.com.br, Sun Mar 30 09:56:40 2014
720.707.189-31, 200830292, Brandt, Joann, joann.brandt@incolume.com.br, Mon Nov  3 11:29:26 2008
698.770.109-11, 201691553, Perez, Timothy, timothy.perez@incolume.com.br, Sat May 28 11:47:34 2016
043.698.076-14, 201419218, Pavick, Bobby, bobby.pavick@incolume.com.br, Wed Jun 18 12:51:11 2014
955.854.348-27, 201359091, Aguilar, Susan, susan.aguilar@incolume.com.br, Thu Sep  5 20:20:39 2013
782.074.545-36, 201027641, Smith, Shelly, shelly.smith@incolume.com.br, Mon Feb 15 16:17:18 2010
282.547.660-32, 201178034, Segura, Anthony, anthony.segura@incolume.com.br, Mon Nov 14 12:38:13 2011
191.546.427-87, 200934564, Stulce, Kevin, kevin.stulce@incolume.com.br, Sun Feb  8 10:29:35 2009
479.301.023-05, 200918069, Mann, Danielle, danielle.mann@incolume.com.br, Tue Sep 22 06:52:57 2009
011.505.357-44, 200907871, Walker, Justin, justin.walker@incolume.com.br, Sat Oct  3 09:08:28 2009
646.571.853-66, 201799687, Castillo, Lillian, lillian.castillo@incolume.com.br, Sat Feb 25 21:10:56 2017
777.946.182-00, 201498779, Rose, Eduardo, eduardo.rose@incolume.com.br, Wed Dec 17 04:32:39 2014
706.821.514-22, 201233290, Buffington, Jose, jose.buffington@incolume.com.br, Tue Nov 20 05:13:12 2012
902.676.877-48, 201287073, Cunha, Joseph, joseph.cunha@incolume.com.br, Wed May 30 22:24:34 2012
211.043.681-11, 201425374, Blaylock, Leonard, leonard.blaylock@incolume.com.br, Sun Jun  1 01:47:45 2014
505.924.335-79, 201315472, Beals, Leonora, leonora.beals@incolume.com.br, Thu Dec 12 02:56:16 2013
523.792.189-11, 200904303, Young, Cheryl, cheryl.young@incolume.com.br, Thu Apr 30 02:21:33 2009
266.216.633-73, 201723294, Lilly, Rolando, rolando.lilly@incolume.com.br, Thu Jul  6 19:32:22 2017
128.792.859-84, 200825887, Miller, Jenny, jenny.miller@incolume.com.br, Tue Jul  1 03:50:56 2008
565.341.470-91, 201528914, Lodi, Dennis, dennis.lodi@incolume.com.br, Wed Jul  1 12:37:29 2015
680.070.329-14, 201780027, Carson, Scott, scott.carson@incolume.com.br, Wed Feb  1 21:09:06 2017
903.118.735-56, 201034604, Shell, Stephanie, stephanie.shell@incolume.com.br, Wed May 12 11:50:04 2010
033.637.050-92, 200953016, Hooser, Chrystal, chrystal.hooser@incolume.com.br, Sun Jun 28 07:10:06 2009
460.455.866-64, 201043236, Harmon, Arthur, arthur.harmon@incolume.com.br, Tue Oct  5 13:14:15 2010
857.757.431-86, 201139004, Martinez, Raymond, raymond.martinez@incolume.com.br, Mon Apr 18 14:06:00 2011
001.364.219-93, 201101347, Alessandroni, Jennifer, jennifer.alessandroni@incolume.com.br, Wed Mar 23 03:23:06 2011
